top_dump.vcd
$date
	Tue Jun 14 19:49:38 2022
$end
$version
	Icarus Verilog
$end
$timescale
	1ps
$end
$scope module top_tb $end
$var wire 32 ! rdata [31:0] $end
$var reg 4 " address [3:0] $end
$var reg 1 # clock $end
$var reg 1 $ rd $end
$var reg 1 % reset $end
$var reg 1 & start $end
$var reg 32 ' wdata [31:0] $end
$var reg 1 ( wr $end
$scope module uut $end
$var wire 1 ) Rx_clock $end
$var wire 4 * Rx_io_ADD [3:0] $end
$var wire 1 + Rx_io_RD $end
$var wire 32 , Rx_io_WDATA [31:0] $end
$var wire 1 - Rx_io_WR $end
$var wire 32 . Tx_io_RDATA [31:0] $end
$var wire 1 / Tx_io_START $end
$var wire 4 0 Tx_io_TOP_ADDRESS [3:0] $end
$var wire 1 1 Tx_io_TOP_RD $end
$var wire 32 2 Tx_io_TOP_WDATA [31:0] $end
$var wire 1 3 Tx_io_TOP_WR $end
$var wire 1 # clock $end
$var wire 1 & io_start $end
$var wire 4 4 io_top_address [3:0] $end
$var wire 1 $ io_top_rd $end
$var wire 32 5 io_top_rdata [31:0] $end
$var wire 32 6 io_top_wdata [31:0] $end
$var wire 1 ( io_top_wr $end
$var wire 1 % reset $end
$var wire 1 7 Tx_io_WR $end
$var wire 32 8 Tx_io_WDATA [31:0] $end
$var wire 32 9 Tx_io_TOP_RDATA [31:0] $end
$var wire 1 : Tx_io_RD $end
$var wire 4 ; Tx_io_ADDRESS [3:0] $end
$var wire 32 < Rx_io_RDATA [31:0] $end
$scope module Rx $end
$var wire 1 ) clock $end
$var wire 4 = io_ADD [3:0] $end
$var wire 1 + io_RD $end
$var wire 32 > io_WDATA [31:0] $end
$var wire 1 - io_WR $end
$var wire 4 ? mem__T_4_addr [3:0] $end
$var wire 32 @ mem__T_4_data [31:0] $end
$var wire 1 A mem__T_4_en $end
$var wire 1 B mem__T_4_mask $end
$var wire 32 C mem__T_9_data [31:0] $end
$var wire 4 D mem__T_9_addr [3:0] $end
$var wire 32 E io_RDATA [31:0] $end
$var wire 32 F _GEN_7 [31:0] $end
$var reg 4 G mem__T_9_addr_pipe_0 [3:0] $end
$var reg 1 H mem__T_9_en_pipe_0 $end
$upscope $end
$scope module Tx $end
$var wire 1 I _GEN_0 $end
$var wire 1 : io_RD $end
$var wire 32 J io_RDATA [31:0] $end
$var wire 1 / io_START $end
$var wire 4 K io_TOP_ADDRESS [3:0] $end
$var wire 1 1 io_TOP_RD $end
$var wire 32 L io_TOP_WDATA [31:0] $end
$var wire 1 3 io_TOP_WR $end
$var wire 1 7 io_WR $end
$var wire 32 M io_WDATA [31:0] $end
$var wire 32 N io_TOP_RDATA [31:0] $end
$var wire 4 O io_ADDRESS [3:0] $end
$var wire 32 P _GEN_9 [31:0] $end
$var wire 32 Q _GEN_8 [31:0] $end
$var wire 4 R _GEN_7 [3:0] $end
$var wire 1 S _GEN_5 $end
$var wire 32 T _GEN_3 [31:0] $end
$var wire 4 U _GEN_2 [3:0] $end
$upscope $end
$upscope $end
$upscope $end
$enddefinitions $end
#0
$dumpvars
bx U
bx T
xS
bx R
bx Q
bx P
bx O
bx N
bx M
bx L
bx K
bx J
xI
xH
bx G
bx F
bx E
bx D
bx C
1B
xA
bx @
bx ?
bx >
bx =
bx <
bx ;
x:
bx 9
bx 8
x7
bx 6
bx 5
bx 4
x3
bx 2
x1
bx 0
x/
bx .
x-
bx ,
x+
bx *
0)
x(
bx '
x&
x%
x$
0#
bx "
bx !
$end
#5000
1%
1)
1#
#10000
0)
0#
#15000
b0 .
b0 J
b0 <
b0 E
1A
1-
17
b0 !
b0 5
b0 9
b0 N
b1010 @
b1010 ,
b1010 >
b1010 8
b1010 M
b111 ?
b111 *
b111 =
b111 ;
b111 O
b0 F
b0 T
0I
1S
b0 P
b1010 Q
b0 U
b111 R
0+
0:
01
0$
13
1(
b1010 2
b1010 L
b1010 '
b1010 6
b111 0
b111 K
b111 "
b111 4
1/
1&
1)
1#
0%
#20000
0)
0#
#25000
0H
b1011 @
b1011 ,
b1011 >
b1011 8
b1011 M
b1000 ?
b1000 *
b1000 =
b1000 ;
b1000 O
b1011 Q
b1000 R
b1011 2
b1011 L
b1011 '
b1011 6
b1000 0
b1000 K
b1000 "
b1000 4
1)
1#
#30000
0)
0#
#35000
0A
0-
07
b0 @
b0 ,
b0 >
b0 8
b0 M
b0 ?
b0 *
b0 =
b0 ;
b0 O
0S
b0 Q
b0 R
1)
1#
03
0(
b0 2
b0 L
b0 '
b0 6
b0 0
b0 K
b0 "
b0 4
#40000
0)
0#
#45000
bx !
bx 5
bx 9
bx N
bx P
bx T
bx .
bx J
bx <
bx E
b1000 ?
b1000 *
b1000 =
b1000 ;
b1000 O
bx F
b1000 R
1+
1:
b1000 U
11
1$
b1000 0
b1000 K
b1000 "
b1000 4
1)
1#
#50000
0)
0#
#55000
b1011 !
b1011 5
b1011 9
b1011 N
b1011 P
b1011 T
b1011 .
b1011 J
b1011 <
b1011 E
b1011 F
b1011 C
b1000 D
b1000 G
1H
b0 ?
b0 *
b0 =
b0 ;
b0 O
b0 R
b0 U
1)
1#
b0 0
b0 K
b0 "
b0 4
#60000
0)
0#
#65000
bx !
bx 5
bx 9
bx N
bx P
bx T
bx .
bx J
bx <
bx E
bx F
bx C
b0 D
b0 G
b111 ?
b111 *
b111 =
b111 ;
b111 O
b111 R
b111 U
b111 0
b111 K
b111 "
b111 4
1)
1#
#70000
0)
0#
#75000
b1010 !
b1010 5
b1010 9
b1010 N
b1010 P
b1010 T
b1010 .
b1010 J
b1010 <
b1010 E
b1010 F
b1010 C
b111 D
b111 G
1)
1#
#80000
0)
0#
#85000
0H
b0 .
b0 J
b0 <
b0 E
b0 R
b0 P
b0 F
b0 U
b0 T
0+
0:
b0 !
b0 5
b0 9
b0 N
b0 ?
b0 *
b0 =
b0 ;
b0 O
1)
1#
01
0$
0/
0&
